         U __bss_end__
         U __bss_start__
         w __deregister_frame_info
         U hardware_init_hook
         w _Jv_RegisterClasses
         w __libc_fini
         U _read
         w __register_frame_info
         U software_init_hook
         U __stack
         U _write
00002000 a __stack_size__
00080000 T exception_table
00080000 T _sfixed
000800f4 t __do_global_dtors_aux
00080118 t frame_dummy
00080150 t ioport_set_pin_level
000801bc t ioport_toggle_pin_level
00080228 T main
0008063c T signal_power
000806b0 T compare
000807f8 T dtwarp
00080ce0 T signal2coeff
00080e34 T signal2ac
00080ee0 T fft512
00080fb8 T _fft
000813e8 T power2mel
00081598 T mfcc
00081700 T say_time
00081a04 t ioport_toggle_pin_level
00081a70 T leds_driver
00081acc T buttons_driver
00081b90 T clock_driver
00081bf8 T adc_driver
00081c54 T dac_driver
00081ca4 t sysclk_enable_peripheral_clock
00081cb8 t ioport_init
00081cd8 t ioport_set_pin_mode
00081db0 t ioport_set_pin_dir
00081e38 t ioport_set_pin_level
00081ea4 t ioport_get_pin_level
00081ef4 t ioport_toggle_pin_level
00081f60 T adc_setup
00081fb4 T adc_read
00081fec T dac_setup
00082028 T dac_write
00082058 T get_button_press
00082088 T get_button_state
00082108 T init_buttons
00082154 T init_leds
00082180 T led_set_state
000821d8 T led_toggle_state
00082228 T uart_setup
00082294 t NVIC_SetPriority
000822e8 T rtos_init
000823c0 T rtos_enable
000823dc T SysTick_Handler
000824cc T fifo_read
00082544 T fifo_write
000825bc T SystemCoreClockUpdate
0008273c W ADC_Handler
0008273c W BusFault_Handler
0008273c W CAN0_Handler
0008273c W CAN1_Handler
0008273c W DACC_Handler
0008273c W DebugMon_Handler
0008273c W DMAC_Handler
0008273c T Dummy_Handler
0008273c W EFC0_Handler
0008273c W EFC1_Handler
0008273c W EMAC_Handler
0008273c W HardFault_Handler
0008273c W HSMCI_Handler
0008273c W MemManage_Handler
0008273c W NMI_Handler
0008273c W PendSV_Handler
0008273c W PIOA_Handler
0008273c W PIOB_Handler
0008273c W PIOC_Handler
0008273c W PIOD_Handler
0008273c W PMC_Handler
0008273c W PWM_Handler
0008273c W RSTC_Handler
0008273c W RTC_Handler
0008273c W RTT_Handler
0008273c W SMC_Handler
0008273c W SPI0_Handler
0008273c W SSC_Handler
0008273c W SUPC_Handler
0008273c W SVC_Handler
0008273c W TC0_Handler
0008273c W TC1_Handler
0008273c W TC2_Handler
0008273c W TC3_Handler
0008273c W TC4_Handler
0008273c W TC5_Handler
0008273c W TC6_Handler
0008273c W TC7_Handler
0008273c W TC8_Handler
0008273c W TRNG_Handler
0008273c W TWI0_Handler
0008273c W TWI1_Handler
0008273c W UART_Handler
0008273c W UOTGHS_Handler
0008273c W UsageFault_Handler
0008273c W USART0_Handler
0008273c W USART1_Handler
0008273c W USART2_Handler
0008273c W USART3_Handler
0008273c W WDT_Handler
00082744 T Reset_Handler
000827e4 t osc_enable
0008285c t osc_is_ready
000828c4 t osc_get_rate
00082938 t osc_wait_ready
00082960 t pll_config_init
000829c4 t pll_enable
000829fc t pll_is_locked
00082a20 t pll_enable_source
00082a4c t pll_wait_for_lock
00082a6c t sysclk_get_main_hz
00082a84 t sysclk_get_cpu_hz
00082a94 T sysclk_init
00082ae4 T _sbrk
00082b3c T pmc_switch_mck_to_pllack
00082bc0 T pmc_switch_sclk_to_32kxtal
00082bf8 T pmc_osc_is_ready_32kxtal
00082c2c T pmc_switch_mainck_to_fastrc
00082c9c T pmc_switch_mainck_to_xtal
00082d14 T pmc_osc_is_ready_mainck
00082d30 T pmc_disable_pllack
00082d48 T pmc_is_locked_pllack
00082d64 T pmc_is_locked_upll
00082d80 T pmc_enable_periph_clk
00082e04 T pio_pull_up
00082e30 T pio_set_peripheral
00082eb0 T dacc_reset
00082ec8 T dacc_set_transfer_mode
00082f00 T dacc_get_interrupt_status
00082f18 T dacc_write_conversion_data
00082f34 T dacc_set_channel_selection
00082f78 T dacc_set_timing
00082fdc T dacc_enable_channel
00083008 T adc_init
0008306c T adc_set_resolution
0008309c T adc_configure_trigger
000830cc T adc_configure_timing
0008310c T adc_start
00083124 T adc_enable_channel
00083148 T adc_get_channel_value
00083178 T adc_get_status
00083190 T uart_init
000831f4 T uart_enable
0008320c T uart_reset
00083224 T uart_reset_status
00083240 T cos
000832d0 T sin
00083364 T log10
00083468 T __ieee754_log10
00083580 T __ieee754_rem_pio2
000839a8 T __kernel_cos
00083bf0 T __kernel_rem_pio2
000843f8 T __kernel_sin
00084568 T fabs
00084570 T floor
00084688 T __fpclassifyd
000846e0 T matherr
000846e4 T nan
000846f0 T scalbn
000847e0 T __ieee754_log
00084bb0 T copysign
00084bc0 T __aeabi_drsub
00084bc8 T __aeabi_dsub
00084bc8 T __subdf3
00084bcc T __adddf3
00084bcc T __aeabi_dadd
00084e44 T __aeabi_ui2d
00084e44 T __floatunsidf
00084e64 T __aeabi_i2d
00084e64 T __floatsidf
00084e88 T __aeabi_f2d
00084e88 T __extendsfdf2
00084ec4 T __aeabi_ul2d
00084ec4 T __floatundidf
00084ed4 T __aeabi_l2d
00084ed4 T __floatdidf
00084f30 T __aeabi_dmul
00084f30 T __muldf3
00085184 T __aeabi_ddiv
00085184 T __divdf3
00085354 T __gedf2
00085354 T __gtdf2
0008535c T __ledf2
0008535c T __ltdf2
00085364 T __cmpdf2
00085364 T __eqdf2
00085364 T __nedf2
000853e0 T __aeabi_cdrcmple
000853f0 T __aeabi_cdcmpeq
000853f0 T __aeabi_cdcmple
00085400 T __aeabi_dcmpeq
00085414 T __aeabi_dcmplt
00085428 T __aeabi_dcmple
0008543c T __aeabi_dcmpge
00085450 T __aeabi_dcmpgt
00085464 T __aeabi_d2iz
00085464 T __fixdfsi
000854b4 T __aeabi_d2uiz
000854b4 T __fixunsdfsi
000854f4 T __aeabi_d2f
000854f4 T __truncdfsf2
00085594 T __aeabi_frsub
0008559c T __aeabi_fsub
0008559c T __subsf3
000855a0 T __addsf3
000855a0 T __aeabi_fadd
00085700 T __aeabi_ui2f
00085700 T __floatunsisf
00085708 T __aeabi_i2f
00085708 T __floatsisf
00085724 T __aeabi_ul2f
00085724 T __floatundisf
00085734 T __aeabi_l2f
00085734 T __floatdisf
000857b0 T __aeabi_fmul
000857b0 T __mulsf3
00085918 T __aeabi_fdiv
00085918 T __divsf3
00085a50 T __gesf2
00085a50 T __gtsf2
00085a58 T __lesf2
00085a58 T __ltsf2
00085a60 T __cmpsf2
00085a60 T __eqsf2
00085a60 T __nesf2
00085ac0 T __aeabi_cfrcmple
00085ac8 T __aeabi_cfcmpeq
00085ac8 T __aeabi_cfcmple
00085ad8 T __aeabi_fcmpeq
00085aec T __aeabi_fcmplt
00085b00 T __aeabi_fcmple
00085b14 T __aeabi_fcmpge
00085b28 T __aeabi_fcmpgt
00085b3c T __aeabi_f2uiz
00085b3c T __fixunssfsi
00085b7c T __errno
00085b88 T __libc_init_array
00085bd8 T malloc
00085be8 T free
00085bf8 T _malloc_r
00086104 T memset
000861a0 T __malloc_lock
000861a4 T __malloc_unlock
000861a8 T _sbrk_r
000861cc t register_fini
000861e0 T atexit
000861ec T __libc_fini_array
00086218 T _malloc_trim_r
000862b4 T _free_r
00086464 T __register_exitproc
00086508 T Hann_window_coeff
00086688 T mel_ferq_bank
000866a4 T ref_signals_size_FIFI
000866b0 T FIFI1
00086850 T FIFI2
000869bc T FIFI3
00086b90 T FIFI4
00086cfc T FIFI5
00086e34 T FIFI6
00086fa0 T ref_signals_size_LUC_URA
00086fb8 T LUC1
000871f4 T LUC2
00087430 T LUC3
0008766c T LUC4
000878a8 T LUC5
00087ae4 T LUC6
00087c1c T URA1
00087df0 T URA2
00087f90 T URA3
000880fc T URA4
00088268 T URA5
000883d4 T URA6
000885a8 T ref_signals_size_DA_NE
000885c0 T DA1
000886c4 T DA2
000887fc T DA3
00088968 T DA4
00088a6c T DA5
00088ba4 T DA6
00088cdc T NE1
00088e48 T NE2
00088fb4 T NE3
00089120 T NE4
000892c0 T NE5
000894fc T NE6
00089668 T pos_zelite
0008a568 T pos_se_kaj
0008b468 T pos_ponovite
0008c4e8 T pos_adijo
0008d0e8 T c0
0008dfe8 T c1
0008ed68 T c2
0008fae8 T c3
000903e8 T c4
00091468 T c5
00091ee8 T c6
00092c68 T c7
000939e8 T c8
00094768 T c9
00095968 T c10
00096b68 T c11
000978e8 T c12
00098c68 T c13
00099ce8 T c14
0009ad68 T c15
0009bae8 T c16
0009c868 T c17
0009d8e8 T c18
0009ec68 T c19
000a0168 T c20
000a1368 T pos_stevilo_size
000a1394 T pos_in_size
000a1398 T pos_in
000a2298 T pos_minut_size
000a229c T pos_minut
000a3628 t npio2_hw
000a36a8 t two_over_pi
000a37b0 t init_jk
000a37c0 t PIo2
000a3804 T _global_impure_ptr
000a3808 T _init
000a3814 T __init_array_start
000a3814 T __preinit_array_end
000a3814 T __preinit_array_start
000a3818 t __frame_dummy_init_array_entry
000a381c T _fini
000a381c T __init_array_end
000a3828 t __system_init_flash_veneer
000a3838 t __do_global_dtors_aux_fini_array_entry
000a3838 T __fini_array_start
000a383c T _efixed
000a383c T _etext
000a383c T __fini_array_end
20070000 T _srelocate
20070000 T SystemInit
200700d0 T system_init_flash
2007018c T ref_signals_FIFI
200701a4 T ref_signals_LUC_URA
200701d4 T ref_signals_DA_NE
20070204 T pos_stevilo
20070258 T hours
20070259 T minutes
2007025c T rtos_task_list
20070270 T rtos_num_task
20070274 T task_leds
20070288 T task_buttons
2007029c T task_clock
200702b0 T adc_fifo
200702bc T task_adc
200702d0 T task_dac
200702e4 t state_old.8032
200702e8 T SystemCoreClock
200702ec T __fdlib_version
200702f0 t impure_data
20070718 T _impure_ptr
2007071c T __malloc_av_
20070b24 T __malloc_trim_threshold
20070b28 T __malloc_sbrk_base
20070b2c b completed.8108
20070b2c T _erelocate
20070b2c B _sbss
20070b2c B _szero
20070b30 b object.8113
20070b48 B signal
2007c6c8 B signal_size
2007c6ca b stevec_status1.8077
2007c6cc b stevec.8093
2007c6ce b sample.8109
2007c6d0 b tick.7707
2007c6d4 b heap.5200
2007c6d8 B __malloc_max_total_mem
2007c6dc B __malloc_max_sbrked_mem
2007c6e0 B __malloc_top_pad
2007c6e4 B __malloc_current_mallinfo
2007c70c B output_signal
2007c710 B output_signal_size
2007c714 B dac_fifo_buff
2007cd18 B buttons_fifo_buff
2007cd6c B adc_fifo_buff
2007d370 B rtos_slice
2007d374 B errno
2007d378 B _ebss
2007d378 B _ezero
2007d378 B _sstack
2007f378 B _end
2007f378 B _estack
20087ffc A __ram_end__
